{
  "defaultVolume": 5,
  "ffmpeg_check": true,
  "activityString": {
    "zero": "Playing currently no music!",
    "one": "Playing music for one Channel!",
    "more": "Playing music for %COUNT% Channels!"
  }
}