{
  "simple": [
    {
      "title": "Five Nights at Freddy's 1 Song - The Living Tombstone",
      "url": "https://www.youtube.com/watch?v=l18A5BOTlzE"
    },
    {
      "title": "Five Nights at Freddy's 2 Song - The Living Tombstone (FNAF2)",
      "url": "https://www.youtube.com/watch?v=gk-aCL6eyGc"
    },
    {
      "title": "Five Nights at Freddy's 3 Song (Feat. EileMonty & Orko) - Die In A Fire (FNAF3) - Living Tombstone",
      "url": "https://www.youtube.com/watch?v=AibtyCAhyQE"
    },
    {
      "title": "Five Nights at Freddy's 4 Song - I Got No Time (FNAF4) - The Living Tombstone",
      "url": "https://www.youtube.com/watch?v=YREhVveHq9k"
    }
  ],
  "advanced": {
    "updateTracks": true,
    "playlist": []
  }
}